{"photos":{"page":2,"pages":10,"perpage":100,"total":1000,"photo":[{"id":"31969146354","owner":"147189661@N05","secret":"d6a95f51d7","server":"2769","farm":3,"title":"In Finlandia si sta testando il reddito minimo per tutti","ispublic":1,"isfriend":0,"isfamily":0},{"id":"31969146594","owner":"137275142@N02","secret":"ba1756ec38","server":"2607","farm":3,"title":"GILLIE DA KID & LIL FLIP performing live in Denver Colorado for 4\/20 weekend!!!","ispublic":1,"isfriend":0,"isfamily":0},{"id":"31969151584","owner":"115065959@N08","secret":"b650bfd133","server":"622","farm":1,"title":"P_20170209_103837","ispublic":1,"isfriend":0,"isfamily":0},{"id":"31969153504","owner":"88015725@N04","secret":"b759242c1a","server":"363","farm":1,"title":"Recep\u00e7\u00e3o de casamento - Valet Parking.  Fa\u00e7a uma cota\u00e7\u00e3o on-line www.valetsecurity.com.br  3226-5559 85 98889-4929","ispublic":1,"isfriend":0,"isfamily":0},{"id":"31969158344","owner":"41699885@N02","secret":"4d874e9ddc","server":"3762","farm":4,"title":".","ispublic":1,"isfriend":0,"isfamily":0},{"id":"31969158484","owner":"15604357@N05","secret":"31da8f1a17","server":"2076","farm":3,"title":"K_1P6414.jpg","ispublic":1,"isfriend":0,"isfamily":0},{"id":"31969160524","owner":"63611572@N00","secret":"044c807f5b","server":"2032","farm":3,"title":"My cousin, La'ona DeWilde, presented at #alaskaforum this afternoon on Research, Monitoring and Tools to Implement Tribal Environmental Protection Goals. She is one smart woman! #athabascan #alaskanative","ispublic":1,"isfriend":0,"isfamily":0},{"id":"31969167724","owner":"142704704@N07","secret":"c78bcbb325","server":"2252","farm":3,"title":"Day 9","ispublic":1,"isfriend":0,"isfamily":0},{"id":"31969169884","owner":"55068891@N04","secret":"c483e2a3a1","server":"2659","farm":3,"title":"HD","ispublic":1,"isfriend":0,"isfamily":0},{"id":"31969169944","owner":"136558004@N07","secret":"071d79b076","server":"3734","farm":4,"title":"Curtiss-Wright XP-55 Ascender (CW-24) Fighter Free Aircraft Paper Model Download","ispublic":1,"isfriend":0,"isfamily":0},{"id":"31969171074","owner":"82499477@N00","secret":"2f8945dd3e","server":"291","farm":1,"title":"\u7b2c\u4e00\u9031\u3002\u7b2c\u4e8c\u968e\u6bb5\u7b2c\u4e00\u5929\uff0c\u5348\u9910\u665a\u9910\u7684\u4e3b\u83dc\u662f\u904e\u5e74\u5269\u7684\u767d\u65ac\u96de\u80f8\u8089\uff0c\u70e4\u77f3\u6591\u53ca\u9bdb\u9b5a\uff0c\u548c\u5f88\u591a\u7684\u852c\u83dc\u3002\u9ede\u5fc3\u662f\u6c34\u716e\u9baa\u9b5a\u62cc\u6d0b\u8525\u4e01\u914d\u751f\u83dc\u3002","ispublic":1,"isfriend":0,"isfamily":0},{"id":"31969172484","owner":"147651392@N04","secret":"e4f3c7696b","server":"3731","farm":4,"title":"The between!","ispublic":1,"isfriend":0,"isfamily":0},{"id":"31969184594","owner":"145722443@N07","secret":"ff98fc2c6d","server":"2766","farm":3,"title":"Bill Nye Unveils Trailer For New Netflix Show","ispublic":1,"isfriend":0,"isfamily":0},{"id":"31969186294","owner":"138307146@N07","secret":"7f4c7a8e5c","server":"378","farm":1,"title":"The melding of the minds. #masterminds #businesspartners #notjusthatracks #brainsinthegame #noblesolution","ispublic":1,"isfriend":0,"isfamily":0},{"id":"31969187684","owner":"53832245@N02","secret":"ae67f01e65","server":"2876","farm":3,"title":"","ispublic":1,"isfriend":0,"isfamily":0},{"id":"31969187864","owner":"146604615@N08","secret":"da9fb8b0f3","server":"3953","farm":4,"title":"h\u00e0i lmht - Orianna Montage - 'L\u1ea1c tr\u00f4i' v\u00e0o nh\u1eefng c\u00fa xo\u00e1y ch\u1ebft ng\u01b0\u1eddi (LMHT)","ispublic":1,"isfriend":0,"isfamily":0},{"id":"31969187934","owner":"108736176@N08","secret":"5871b79e6e","server":"2350","farm":3,"title":"","ispublic":1,"isfriend":0,"isfamily":0},{"id":"31969192194","owner":"44662282@N08","secret":"dd74392f14","server":"432","farm":1,"title":"\u05e4\u05d5\u05e8\u05e1\u05de\u05d4 \u05de\u05e9\u05e8\u05d4 \u05e0\u05d7\u05e9\u05e7\u05ea \u05d1\u05de\u05d9\u05d5\u05d7\u05d3","ispublic":1,"isfriend":0,"isfamily":0},{"id":"31969193184","owner":"114995924@N07","secret":"7e5daaf9af","server":"517","farm":1,"title":"Untitled","ispublic":1,"isfriend":0,"isfamily":0},{"id":"31969193534","owner":"61087836@N00","secret":"9a1165455c","server":"2555","farm":3,"title":"Quick CX 2","ispublic":1,"isfriend":0,"isfamily":0},{"id":"31997728483","owner":"47163082@N08","secret":"d2741bb179","server":"2389","farm":3,"title":"Matsumoto University-2, Reunion with President Dr. Sumiyoshi, Hotaka & Azumino-6 @Nagano,Dec,2016","ispublic":1,"isfriend":0,"isfamily":0},{"id":"31997728733","owner":"11712888@N04","secret":"0f9595ba52","server":"2440","farm":3,"title":"\u0e14\u0e2d\u0e01\u0e25\u0e35\u0e25\u0e32\u0e27\u0e14\u0e35","ispublic":1,"isfriend":0,"isfamily":0},{"id":"31997733893","owner":"91993165@N08","secret":"74fcf08899","server":"458","farm":1,"title":"750_6091-Edit.jpg","ispublic":1,"isfriend":0,"isfamily":0},{"id":"31997736723","owner":"60565001@N03","secret":"1cf2b87e83","server":"305","farm":1,"title":"S\/T","ispublic":1,"isfriend":0,"isfamily":0},{"id":"31997736793","owner":"21161332@N00","secret":"c61783786f","server":"2722","farm":3,"title":"Made Scotch Eggs (the extra little turd shaped thingies are the leftover dough made into Hush Puppies)","ispublic":1,"isfriend":0,"isfamily":0},{"id":"31997745303","owner":"147643347@N03","secret":"89cd7f9baa","server":"3783","farm":4,"title":"Ultra Kobe Bryant rookie","ispublic":1,"isfriend":0,"isfamily":0},{"id":"31997752933","owner":"147863214@N06","secret":"1b257b92e7","server":"2304","farm":3,"title":"Self portrait","ispublic":1,"isfriend":0,"isfamily":0},{"id":"32431426190","owner":"23950695@N04","secret":"aa6960aca8","server":"676","farm":1,"title":"Martha Washington","ispublic":1,"isfriend":0,"isfamily":0},{"id":"32431426370","owner":"141772863@N07","secret":"4983ec4cd3","server":"732","farm":1,"title":"P - 51 Mustang X 3 F - 35 DMAFB Az","ispublic":1,"isfriend":0,"isfamily":0},{"id":"32431426460","owner":"129703584@N06","secret":"ca7bb4e131","server":"356","farm":1,"title":"Electronics","ispublic":1,"isfriend":0,"isfamily":0},{"id":"32431428260","owner":"149258848@N08","secret":"afc86c1a23","server":"2546","farm":3,"title":"And a 1 and a 2 and a 3 and a 4 and a 1 and a...","ispublic":1,"isfriend":0,"isfamily":0},{"id":"32431431270","owner":"150846357@N06","secret":"ea06de1605","server":"552","farm":1,"title":"Falco 60 - Falco (2017) is Finally Released ! Free Download Available !","ispublic":1,"isfriend":0,"isfamily":0},{"id":"32431435660","owner":"147161660@N07","secret":"860d918423","server":"3848","farm":4,"title":"After Fishing","ispublic":1,"isfriend":0,"isfamily":0},{"id":"32431441100","owner":"126933801@N04","secret":"ed0ea6a19c","server":"612","farm":1,"title":"FIST FIGHT - Official Red Band Trailer","ispublic":1,"isfriend":0,"isfamily":0},{"id":"32431444470","owner":"97054804@N06","secret":"1b478d60aa","server":"3928","farm":4,"title":"IMG_20170108_092154","ispublic":1,"isfriend":0,"isfamily":0},{"id":"32431447850","owner":"43188191@N08","secret":"a645855562","server":"2770","farm":3,"title":"757 - 2017-02-09. But, but... I was in Florida yesterday...","ispublic":1,"isfriend":0,"isfamily":0},{"id":"32431451220","owner":"137132110@N06","secret":"071d79b076","server":"2199","farm":3,"title":"2017-02-10_09-40-43","ispublic":1,"isfriend":0,"isfamily":0},{"id":"32431466260","owner":"147231942@N02","secret":"03e4375a33","server":"3787","farm":4,"title":"Photo","ispublic":1,"isfriend":0,"isfamily":0},{"id":"32431472200","owner":"50732128@N04","secret":"1183e51ae6","server":"690","farm":1,"title":"MUD prioriza poder de la ciudadan\u00eda para elegir libremente https:\/\/t.co\/Slme9WnJSm #Pol\u00edtica #ACN https:\/\/t.co\/sWFjNtuZm0 February 09, 2017 at 10:11PM","ispublic":1,"isfriend":0,"isfamily":0},{"id":"32431475420","owner":"147544081@N02","secret":"639af4edfc","server":"2047","farm":3,"title":"Hong Kong (461).jpg","ispublic":1,"isfriend":0,"isfamily":0},{"id":"32431476410","owner":"134995658@N05","secret":"c33a1aee62","server":"2498","farm":3,"title":"2003 Gulf Stream Scenic Cruiser","ispublic":1,"isfriend":0,"isfamily":0},{"id":"32658655132","owner":"51059027@N06","secret":"5fd4820a2a","server":"2139","farm":3,"title":"Call of Duty \"going back to its roots in 2017\" says Activision","ispublic":1,"isfriend":0,"isfamily":0},{"id":"32658656142","owner":"51470029@N03","secret":"6f07828280","server":"2236","farm":3,"title":"Sun through the trees #snow #mountain #bw #blackandwhite #sunset #trees","ispublic":1,"isfriend":0,"isfamily":0},{"id":"32658657362","owner":"146902186@N08","secret":"ed2a511f9f","server":"2226","farm":3,"title":"1486693716-huong-dan-go-bo-hoan-toan-youndoo-com-tren-tat-ca-cac-trinh-duyet.jpg","ispublic":1,"isfriend":0,"isfamily":0},{"id":"32658664682","owner":"147560968@N03","secret":"886c8ab1bc","server":"3665","farm":4,"title":"968f7829e4263b16897efc41d6f29443","ispublic":1,"isfriend":0,"isfamily":0},{"id":"32658667872","owner":"91952228@N00","secret":"11bd11625a","server":"2323","farm":3,"title":"Rainbow Grocery Organic Egg Chart","ispublic":1,"isfriend":0,"isfamily":0},{"id":"32658675702","owner":"42949429@N02","secret":"ac6d218211","server":"3782","farm":4,"title":"Studio Leen! #art #illustration #sketchbook #Sktchy #Moleskine #portraiture #brushpen #artmodel #instamood #art_daily #artagram #penandink #drawing","ispublic":1,"isfriend":0,"isfamily":0},{"id":"32658676982","owner":"98015414@N07","secret":"817542a176","server":"381","farm":1,"title":"archatlas February 10, 2017 at 03:37AM","ispublic":1,"isfriend":0,"isfamily":0},{"id":"32658677512","owner":"61645656@N08","secret":"b7edef9e47","server":"2257","farm":3,"title":"Kazbeg","ispublic":1,"isfriend":0,"isfamily":0},{"id":"32658681932","owner":"147930824@N08","secret":"6e286a268d","server":"2399","farm":3,"title":"fotos jaredim do demoiselle 001.jpg","ispublic":1,"isfriend":0,"isfamily":0},{"id":"32658686192","owner":"149455306@N07","secret":"1543593bc8","server":"317","farm":1,"title":"048d609a-ece7-4aaa-9e0e-8e5c766c8f20","ispublic":1,"isfriend":0,"isfamily":0},{"id":"32658686662","owner":"113639759@N08","secret":"e9ba8ecf95","server":"2272","farm":3,"title":"Photo","ispublic":1,"isfriend":0,"isfamily":0},{"id":"32658697492","owner":"146165780@N07","secret":"83c200c197","server":"536","farm":1,"title":"IPCamera alarm:GS_Railcam detected alarm at 2017-2-10 13:40:19","ispublic":1,"isfriend":0,"isfamily":0},{"id":"32658698142","owner":"99129909@N03","secret":"b3d12b8e00","server":"2628","farm":3,"title":"3134753","ispublic":1,"isfriend":0,"isfamily":0},{"id":"32688745831","owner":"24887943@N02","secret":"22cf5089d8","server":"2005","farm":3,"title":"","ispublic":1,"isfriend":0,"isfamily":0},{"id":"32688750431","owner":"60367433@N00","secret":"5b7900e07c","server":"2459","farm":3,"title":"What I've learned about being 50","ispublic":1,"isfriend":0,"isfamily":0},{"id":"32688754551","owner":"126091722@N02","secret":"56447d9654","server":"2131","farm":3,"title":"DSC09238.jpg","ispublic":1,"isfriend":0,"isfamily":0},{"id":"32688763801","owner":"142917107@N06","secret":"f5a5b82632","server":"748","farm":1,"title":"Sans titre","ispublic":1,"isfriend":0,"isfamily":0},{"id":"32688764791","owner":"20927506@N07","secret":"e9e1884838","server":"2524","farm":3,"title":"Finished","ispublic":1,"isfriend":0,"isfamily":0},{"id":"32688765941","owner":"32225389@N02","secret":"1df87c06d1","server":"3856","farm":4,"title":"the futility of building a wall","ispublic":1,"isfriend":0,"isfamily":0},{"id":"32688770901","owner":"146889411@N02","secret":"545cf8e4cc","server":"2457","farm":3,"title":"Se ahorca Taxista de Poza Rica","ispublic":1,"isfriend":0,"isfamily":0},{"id":"32688773781","owner":"129698671@N08","secret":"61bb994e4a","server":"2017","farm":3,"title":"Skyler","ispublic":1,"isfriend":0,"isfamily":0},{"id":"32688775141","owner":"118452014@N07","secret":"8453204d95","server":"3739","farm":4,"title":"CHOM0006","ispublic":1,"isfriend":0,"isfamily":0},{"id":"32688775421","owner":"133689949@N04","secret":"d9d9348b11","server":"2789","farm":3,"title":"","ispublic":1,"isfriend":0,"isfamily":0},{"id":"32688778731","owner":"111494793@N05","secret":"7b6acbd72e","server":"3900","farm":4,"title":"#\u0627\u0644\u0641\u062a\u0646_\u0627\u0644\u0633\u0639\u0648\u062f\u064a\u0629\u2026 \u00ab\u0627\u0644\u0639\u0631\u0648\u0628\u0629\u00bb \u0636\u062f #\u0627\u0644\u0645\u0642\u0627\u0648\u0645\u0629","ispublic":1,"isfriend":0,"isfamily":0},{"id":"32688782541","owner":"136666120@N03","secret":"aa791571a9","server":"447","farm":1,"title":"SHADOW CARTEL - Feed Me Bass \/ Back With Ur Love (12\") ...","ispublic":1,"isfriend":0,"isfamily":0},{"id":"32688782881","owner":"21893885@N00","secret":"e6316f57d8","server":"2526","farm":3,"title":"Three More Winners","ispublic":1,"isfriend":0,"isfamily":0},{"id":"32771292316","owner":"77879152@N02","secret":"18a92dd581","server":"3730","farm":4,"title":"Scan 274","ispublic":1,"isfriend":0,"isfamily":0},{"id":"32771294106","owner":"59072883@N06","secret":"7261f67796","server":"2556","farm":3,"title":"Hiking Trail am African Vineyard Guest House","ispublic":1,"isfriend":0,"isfamily":0},{"id":"32771294376","owner":"109715776@N05","secret":"002dce1799","server":"2824","farm":3,"title":"What's for dinner","ispublic":1,"isfriend":0,"isfamily":0},{"id":"32771295286","owner":"45566694@N00","secret":"b2745e43f5","server":"460","farm":1,"title":"P1090920","ispublic":1,"isfriend":0,"isfamily":0},{"id":"32771296406","owner":"149849589@N08","secret":"5a2b8ed856","server":"2900","farm":3,"title":"More NECA 30th Anniversary Predator Figure Info","ispublic":1,"isfriend":0,"isfamily":0},{"id":"32771299066","owner":"146687094@N07","secret":"c50a5647e9","server":"535","farm":1,"title":"Sunbathe together","ispublic":1,"isfriend":0,"isfamily":0},{"id":"32771301926","owner":"136293392@N02","secret":"9bee4247e9","server":"2107","farm":3,"title":"WordCloud:\u6fb3\u6d32\u6253\u5de5","ispublic":1,"isfriend":0,"isfamily":0},{"id":"32771303686","owner":"58495111@N06","secret":"ff68b9e9b7","server":"3690","farm":4,"title":"Opposite View","ispublic":1,"isfriend":0,"isfamily":0},{"id":"32771313906","owner":"143294446@N08","secret":"1fd6157818","server":"2654","farm":3,"title":"","ispublic":1,"isfriend":0,"isfamily":0},{"id":"32771314516","owner":"37480818@N03","secret":"d5ed1c9548","server":"2733","farm":3,"title":"I stood here for hours and watched the lava form a new coastline. It was amazing. Hawaii, USA [OC][4000x6000]","ispublic":1,"isfriend":0,"isfamily":0},{"id":"32771314586","owner":"10077757@N00","secret":"39d41aeb3e","server":"624","farm":1,"title":"212","ispublic":1,"isfriend":0,"isfamily":0},{"id":"32771317176","owner":"27847040@N07","secret":"109c4968e2","server":"3792","farm":4,"title":"105_6078","ispublic":1,"isfriend":0,"isfamily":0},{"id":"32771320086","owner":"146461078@N06","secret":"a30978c9f4","server":"323","farm":1,"title":"*** \uc2a4\uc2a4\ub85c \ud55c\uacc4\ub97c \uc815\ud558\uc9c0 \ub9c8\ub77c(3) *** \uadc0\uac00 \ub4e4\ub9ac\uc9c0 \uc54a\ub294\ub370\ub3c4 \ud55c\uad6d\uc5b4\ub294 \ubb3c\ub860 \uc77c\ubcf8\uc5b4, \uc601\uc5b4, \uc2a4\ud398\uc778\uc5b4\uae4c\uc9c0 \ub2a5\uc219\ud55c 4\uac1c \uad6d\uc5b4 \uc2e4\ub825\uc73c\ub85c \ub3c4\ucfc4\uc5d0 \uc788\ub294 \uc138\uacc4\uc801\uc778 \uae08\uc735\ud68c\uc0ac\uc5d0\uc11c \ubc95\ubb34\uc2ec\uc758\uad00\uc73c\ub85c \uc77c\ud558\uace0 \uc788\ub294 \uc5ec\uc790\uac00 \uc788\ub2e4. \uadf8\ub140\uc758 \uc774\ub984\uc740 \uae40\uc218\ub9bc\uc774\ub2e4. \uadf8\ub140\ub294 \uccad\uac01 \uc7a5\uc560\ub77c\ub294 \uc2e0\uccb4\uc801 \ud55c\uacc4\ubfd0 \uc544\ub2c8\ub77c \uc5b4\ub9b0 \uc2dc\uc808\ubd80\ud130 \uc218\ub9ce\uc740 \uc2dc\ub828\uc744 \ub118\uc5b4\uc11c\uc57c \ud588\ub2e4. \ub450 \uc0b4 \ub54c \ubd80\ubaa8\ub2d8\uc774 \uc774\ud63c\ud558\uace0, \uc5ec\uc12f \uc0b4\uc5d0 \uccad\ub825\uc744 \uc783\uc5c8\ub2e4. \uadf8\ub9ac\uace0 \uc5c4\ub9c8\ub97c \ub530\ub77c \uc77c\ubcf8\uc73c\ub85c \uac74\ub108\uc654\uc9c0\ub9cc \ud559\uad50\uc5d0\uc11c\ub294 \uc655\ub530\uc758 \ub300\uc0c1\uc774\uc5c8\ub2e4. \uadf8","ispublic":1,"isfriend":0,"isfamily":0},{"id":"32771321076","owner":"62991404@N06","secret":"e2333e6bce","server":"3802","farm":4,"title":"Record by Always E-mail, 2017-02-09 21:40:17","ispublic":1,"isfriend":0,"isfamily":0},{"id":"32771321316","owner":"90535065@N03","secret":"58eac90b15","server":"376","farm":1,"title":"test123","ispublic":1,"isfriend":0,"isfamily":0},{"id":"32771321366","owner":"128061137@N03","secret":"98d3c9d2a2","server":"2351","farm":3,"title":"Egret Reflection","ispublic":1,"isfriend":0,"isfamily":0},{"id":"32771325686","owner":"125096574@N03","secret":"54212e75a6","server":"523","farm":1,"title":"\u8fd1\u5927\u5fd7\u9858\u8005\u6570\u65e5\u672c\u4e00\u7406\u7531 \u306e\u3073\u3057\u308dNO1\u7121\u9650\u306e\u53ef\u80fd\u6027  \u6728\u6751\u52dd\u5247\u6ecb\u8cc0\u770c\u9ad8\u5cf6\u5e02\uff01","ispublic":1,"isfriend":0,"isfamily":0},{"id":"32771325796","owner":"151816478@N06","secret":"f8d675329d","server":"2739","farm":3,"title":"","ispublic":1,"isfriend":0,"isfamily":0},{"id":"32771329786","owner":"144923756@N06","secret":"10863a2544","server":"544","farm":1,"title":"\u221a Your World Is A Reflection Of What You Are. If You Are Good Then The World Is Good.    C.A. FARID. BATADA.","ispublic":1,"isfriend":0,"isfamily":0},{"id":"32771333486","owner":"35379445@N07","secret":"cace0363b7","server":"3713","farm":4,"title":"\u041a\u0430\u0441\u0430\u044f\u0441\u044c \u0420\u043e\u043c\u0430\u043d\u0442\u0438\u0447\u0435\u0441\u043a\u0438\u0439 \u041a\u0440\u0430\u0441\u043e\u0447\u043d\u044b\u0435 \u043e\u0441\u0432\u0435\u0449\u0435\u043d\u0438\u0435 Bluetooth \u0414\u0438\u043d\u0430\u043c\u0438\u043a, \u0441\u0435\u043d\u0441\u043e\u0440\u043d\u044b\u0439 \u0417\u0430\u0442\u0435\u043c\u043d\u0435\u043d\u0438\u044f \u041b\u0430\u043c\u043f\u0430 \u0431\u0443\u0434\u0438\u043b\u044c\u043d\u0438\u043a \u041f\u043b\u0435\u0435\u0440\u0430 \u0442\u0435\u043b\u0435\u0444\u043e\u043d \u043e\u0442\u0432\u0435\u0442 \u0434\u043b\u044f \u0440\u0435\u0433\u0438\u0441\u0442\u0440\u0430\u0446\u0438\u0438 \u0441\u0432\u0435\u0442\u0430","ispublic":1,"isfriend":0,"isfamily":0},{"id":"32771334596","owner":"147387811@N02","secret":"7a1f6c2778","server":"3866","farm":4,"title":"Digital Dukan Tough Hybrid Armor Back Cover Case with Kickstand Back Case Cover Compatible With Xiaomi Redmi Note 3 (Black)","ispublic":1,"isfriend":0,"isfamily":0},{"id":"32771336466","owner":"151117566@N05","secret":"b03f4815dd","server":"2605","farm":3,"title":"Cowo: sayang? Cewe: apa ? Cowo: kamu lagi apa ? Cewe: lagi kangen kamu :'( Cowo: hmmz. Aku boleh tanya sesuatu gak? Cewe: boleh Cowo: kamu beneran sayang sma aku? Cewe: yah sayanglah klo gak sayang ga mungkin kangen hihi. Cowo: hmmz. Klo misalkan aku gak","ispublic":1,"isfriend":0,"isfamily":0},{"id":"32771337696","owner":"12131771@N03","secret":"18911a9a04","server":"3906","farm":4,"title":"urbex","ispublic":1,"isfriend":0,"isfamily":0},{"id":"32812030245","owner":"66430340@N07","secret":"21742d47db","server":"2516","farm":3,"title":"Barclays Center Arena - 20170209_2135","ispublic":1,"isfriend":0,"isfamily":0},{"id":"32812033315","owner":"92266727@N08","secret":"c7841e0e6b","server":"2381","farm":3,"title":"IMG_1256a","ispublic":1,"isfriend":0,"isfamily":0},{"id":"32812033735","owner":"145105755@N04","secret":"5bf026cf0d","server":"283","farm":1,"title":"","ispublic":1,"isfriend":0,"isfamily":0},{"id":"32812033975","owner":"134988241@N08","secret":"db5b4066f3","server":"283","farm":1,"title":"Untitled","ispublic":1,"isfriend":0,"isfamily":0},{"id":"32812035085","owner":"69073086@N00","secret":"254a4dcc70","server":"517","farm":1,"title":"Game info + Standings","ispublic":1,"isfriend":0,"isfamily":0},{"id":"32812041585","owner":"97099263@N03","secret":"56f94d86cd","server":"687","farm":1,"title":"ha_2017-02-10-1140","ispublic":1,"isfriend":0,"isfamily":0},{"id":"32812044305","owner":"146643183@N05","secret":"116be1234d","server":"3909","farm":4,"title":"Pacuan kuda","ispublic":1,"isfriend":0,"isfamily":0},{"id":"32812045885","owner":"147087174@N07","secret":"c42f9d6941","server":"2360","farm":3,"title":"Double Bacon Mozzarella Stick Cheeseburger! https:\/\/t.co\/5kfuv5u1Je #istanbul #food #lezzet #mutfak #nefis #kebap #Tarif #yemektarifleri #\u2026","ispublic":1,"isfriend":0,"isfamily":0},{"id":"32812048425","owner":"57789197@N06","secret":"47ff8c623b","server":"289","farm":1,"title":"#nationalpizzaday #\ud83c\udf55 #loumalnatis #pizza #chicago","ispublic":1,"isfriend":0,"isfamily":0},{"id":"32812049005","owner":"123995788@N04","secret":"8d58c1df54","server":"2170","farm":3,"title":"Lokasi Nobar: #mufc #bekasi","ispublic":1,"isfriend":0,"isfamily":0}]},"stat":"ok"}