{"photos":{"page":3,"pages":10,"perpage":100,"total":1000,"photo":[{"id":"31969125784","owner":"115993786@N05","secret":"891d29d2de","server":"2849","farm":3,"title":"","ispublic":1,"isfriend":0,"isfamily":0},{"id":"31969129374","owner":"91620365@N08","secret":"0195142ae4","server":"488","farm":1,"title":"Anatomy","ispublic":1,"isfriend":0,"isfamily":0},{"id":"31969133644","owner":"144555552@N02","secret":"9f1a16abe0","server":"2230","farm":3,"title":"Meet The World's Oldest Surgeon Who Is 89 Years Old And Still Performs 4 Operations A Day","ispublic":1,"isfriend":0,"isfamily":0},{"id":"31969134434","owner":"148800416@N07","secret":"8f908789d9","server":"574","farm":1,"title":"#Repost @_thechuggleisreal \u30fb\u30fb\u30fb What happens when you leave me home alone #trouble #thechuggleisreal http:\/\/ift.tt\/2kUvf1V","ispublic":1,"isfriend":0,"isfamily":0},{"id":"31969135134","owner":"147637463@N07","secret":"4660645eb0","server":"641","farm":1,"title":"","ispublic":1,"isfriend":0,"isfamily":0},{"id":"31969137074","owner":"124044878@N02","secret":"251b9bc9fd","server":"2689","farm":3,"title":"","ispublic":1,"isfriend":0,"isfamily":0},{"id":"31969143244","owner":"11949391@N08","secret":"79ffbf2bd1","server":"2499","farm":3,"title":"2017-02-09_11-37-52","ispublic":1,"isfriend":0,"isfamily":0},{"id":"31969146354","owner":"147189661@N05","secret":"d6a95f51d7","server":"2769","farm":3,"title":"In Finlandia si sta testando il reddito minimo per tutti","ispublic":1,"isfriend":0,"isfamily":0},{"id":"31969146594","owner":"137275142@N02","secret":"ba1756ec38","server":"2607","farm":3,"title":"GILLIE DA KID & LIL FLIP performing live in Denver Colorado for 4\/20 weekend!!!","ispublic":1,"isfriend":0,"isfamily":0},{"id":"31969151584","owner":"115065959@N08","secret":"b650bfd133","server":"622","farm":1,"title":"P_20170209_103837","ispublic":1,"isfriend":0,"isfamily":0},{"id":"31969153504","owner":"88015725@N04","secret":"b759242c1a","server":"363","farm":1,"title":"Recep\u00e7\u00e3o de casamento - Valet Parking.  Fa\u00e7a uma cota\u00e7\u00e3o on-line www.valetsecurity.com.br  3226-5559 85 98889-4929","ispublic":1,"isfriend":0,"isfamily":0},{"id":"31969158344","owner":"41699885@N02","secret":"4d874e9ddc","server":"3762","farm":4,"title":".","ispublic":1,"isfriend":0,"isfamily":0},{"id":"31969158484","owner":"15604357@N05","secret":"31da8f1a17","server":"2076","farm":3,"title":"K_1P6414.jpg","ispublic":1,"isfriend":0,"isfamily":0},{"id":"31969160524","owner":"63611572@N00","secret":"044c807f5b","server":"2032","farm":3,"title":"My cousin, La'ona DeWilde, presented at #alaskaforum this afternoon on Research, Monitoring and Tools to Implement Tribal Environmental Protection Goals. She is one smart woman! #athabascan #alaskanative","ispublic":1,"isfriend":0,"isfamily":0},{"id":"31969167724","owner":"142704704@N07","secret":"c78bcbb325","server":"2252","farm":3,"title":"Day 9","ispublic":1,"isfriend":0,"isfamily":0},{"id":"31997695253","owner":"7862959@N02","secret":"7b83347932","server":"2165","farm":3,"title":"\u516c\u5712\u304b\u3089\u5929\u5b88\u3092\u773a\u3081\u308b\u3002","ispublic":1,"isfriend":0,"isfamily":0},{"id":"31997697463","owner":"147342209@N02","secret":"430a262315","server":"2651","farm":3,"title":"","ispublic":1,"isfriend":0,"isfamily":0},{"id":"31997699543","owner":"147641381@N02","secret":"638cd38a8b","server":"2699","farm":3,"title":"","ispublic":1,"isfriend":0,"isfamily":0},{"id":"31997704113","owner":"147069745@N08","secret":"e8962c36e2","server":"773","farm":1,"title":"Recently bought one of these salt crystal lamp things. I have no idea what it's supposed to do but it looks cool. Anyone know? #saltlamp #saltlamps #whatdoesitmean","ispublic":1,"isfriend":0,"isfamily":0},{"id":"31997705163","owner":"98026538@N02","secret":"ebc13df0f2","server":"2136","farm":3,"title":"Capit\u00f3lio, MG.  Locomotiva N\u00f4made Turismo  Cosmos Fotografia   www.facebook.com\/cosmosfotos","ispublic":1,"isfriend":0,"isfamily":0},{"id":"31997705443","owner":"143965848@N02","secret":"c9255079b3","server":"643","farm":1,"title":"(Re)animated Social Zombie","ispublic":1,"isfriend":0,"isfamily":0},{"id":"31997712123","owner":"137177719@N07","secret":"914040c367","server":"2836","farm":3,"title":"","ispublic":1,"isfriend":0,"isfamily":0},{"id":"31997712203","owner":"101518490@N08","secret":"3c1aa15059","server":"2747","farm":3,"title":"DarkTime.JPG","ispublic":1,"isfriend":0,"isfamily":0},{"id":"31997728483","owner":"47163082@N08","secret":"d2741bb179","server":"2389","farm":3,"title":"Matsumoto University-2, Reunion with President Dr. Sumiyoshi, Hotaka & Azumino-6 @Nagano,Dec,2016","ispublic":1,"isfriend":0,"isfamily":0},{"id":"31997728733","owner":"11712888@N04","secret":"0f9595ba52","server":"2440","farm":3,"title":"\u0e14\u0e2d\u0e01\u0e25\u0e35\u0e25\u0e32\u0e27\u0e14\u0e35","ispublic":1,"isfriend":0,"isfamily":0},{"id":"31997736723","owner":"60565001@N03","secret":"1cf2b87e83","server":"305","farm":1,"title":"S\/T","ispublic":1,"isfriend":0,"isfamily":0},{"id":"31997736793","owner":"21161332@N00","secret":"c61783786f","server":"2722","farm":3,"title":"Made Scotch Eggs (the extra little turd shaped thingies are the leftover dough made into Hush Puppies)","ispublic":1,"isfriend":0,"isfamily":0},{"id":"32431387370","owner":"129560996@N03","secret":"2343a49606","server":"2228","farm":3,"title":"NTU SIN","ispublic":1,"isfriend":0,"isfamily":0},{"id":"32431388070","owner":"138444592@N05","secret":"9a364c25c5","server":"648","farm":1,"title":"16","ispublic":1,"isfriend":0,"isfamily":0},{"id":"32431394190","owner":"21295259@N02","secret":"6346ff1890","server":"417","farm":1,"title":"40 Snow Angel.jpg","ispublic":1,"isfriend":0,"isfamily":0},{"id":"32431394950","owner":"147154584@N08","secret":"e95d1814a9","server":"3943","farm":4,"title":"2017-02-09_08-35-58","ispublic":1,"isfriend":0,"isfamily":0},{"id":"32431406240","owner":"32864680@N04","secret":"aae3d3c61c","server":"538","farm":1,"title":"Data 2-8-2017","ispublic":1,"isfriend":0,"isfamily":0},{"id":"32431407070","owner":"148093736@N03","secret":"b9494fbe69","server":"735","farm":1,"title":"Koti's 2","ispublic":1,"isfriend":0,"isfamily":0},{"id":"32431413930","owner":"63813731@N06","secret":"1bdb1e6a34","server":"2897","farm":3,"title":"kohnan.01","ispublic":1,"isfriend":0,"isfamily":0},{"id":"32431414860","owner":"147374504@N07","secret":"c7a391faa8","server":"2295","farm":3,"title":"Together we stand Together we enlighten.......","ispublic":1,"isfriend":0,"isfamily":0},{"id":"32431415770","owner":"14590845@N05","secret":"21438583bb","server":"303","farm":1,"title":"","ispublic":1,"isfriend":0,"isfamily":0},{"id":"32431419740","owner":"88689292@N00","secret":"e575529bde","server":"2074","farm":3,"title":"Photo","ispublic":1,"isfriend":0,"isfamily":0},{"id":"32431426190","owner":"23950695@N04","secret":"aa6960aca8","server":"676","farm":1,"title":"Martha Washington","ispublic":1,"isfriend":0,"isfamily":0},{"id":"32431426370","owner":"141772863@N07","secret":"4983ec4cd3","server":"732","farm":1,"title":"P - 51 Mustang X 3 F - 35 DMAFB Az","ispublic":1,"isfriend":0,"isfamily":0},{"id":"32431426460","owner":"129703584@N06","secret":"ca7bb4e131","server":"356","farm":1,"title":"Electronics","ispublic":1,"isfriend":0,"isfamily":0},{"id":"32431428260","owner":"149258848@N08","secret":"afc86c1a23","server":"2546","farm":3,"title":"And a 1 and a 2 and a 3 and a 4 and a 1 and a...","ispublic":1,"isfriend":0,"isfamily":0},{"id":"32431431270","owner":"150846357@N06","secret":"ea06de1605","server":"552","farm":1,"title":"Falco 60 - Falco (2017) is Finally Released ! Free Download Available !","ispublic":1,"isfriend":0,"isfamily":0},{"id":"32431435660","owner":"147161660@N07","secret":"860d918423","server":"3848","farm":4,"title":"After Fishing","ispublic":1,"isfriend":0,"isfamily":0},{"id":"32431441100","owner":"126933801@N04","secret":"ed0ea6a19c","server":"612","farm":1,"title":"FIST FIGHT - Official Red Band Trailer","ispublic":1,"isfriend":0,"isfamily":0},{"id":"32431444470","owner":"97054804@N06","secret":"1b478d60aa","server":"3928","farm":4,"title":"IMG_20170108_092154","ispublic":1,"isfriend":0,"isfamily":0},{"id":"32431447850","owner":"43188191@N08","secret":"a645855562","server":"2770","farm":3,"title":"757 - 2017-02-09. But, but... I was in Florida yesterday...","ispublic":1,"isfriend":0,"isfamily":0},{"id":"32658635542","owner":"147213177@N03","secret":"4e4286f9ef","server":"2595","farm":3,"title":"\ud83d\udcaa\ud83d\udcaa\ud83d\udcaa\ud83d\udcaa http:\/\/bit.ly\/2kxVFWc. por @daddy_yankee","ispublic":1,"isfriend":0,"isfamily":0},{"id":"32658639492","owner":"129643500@N02","secret":"30f1234f67","server":"3795","farm":4,"title":"1486693595-san-dau-danh-hai-tap-4-giam-khao-kieu-oanh-bat-ngo-xin-pha-luat.jpg","ispublic":1,"isfriend":0,"isfamily":0},{"id":"32658640192","owner":"146084418@N03","secret":"5844709dee","server":"2041","farm":3,"title":"image","ispublic":1,"isfriend":0,"isfamily":0},{"id":"32658640682","owner":"41275993@N02","secret":"474fdc33e3","server":"3761","farm":4,"title":"New photo added to \"Camera Roll\"","ispublic":1,"isfriend":0,"isfamily":0},{"id":"32658655132","owner":"51059027@N06","secret":"5fd4820a2a","server":"2139","farm":3,"title":"Call of Duty \"going back to its roots in 2017\" says Activision","ispublic":1,"isfriend":0,"isfamily":0},{"id":"32658656142","owner":"51470029@N03","secret":"6f07828280","server":"2236","farm":3,"title":"Sun through the trees #snow #mountain #bw #blackandwhite #sunset #trees","ispublic":1,"isfriend":0,"isfamily":0},{"id":"32658657362","owner":"146902186@N08","secret":"ed2a511f9f","server":"2226","farm":3,"title":"1486693716-huong-dan-go-bo-hoan-toan-youndoo-com-tren-tat-ca-cac-trinh-duyet.jpg","ispublic":1,"isfriend":0,"isfamily":0},{"id":"32658664682","owner":"147560968@N03","secret":"886c8ab1bc","server":"3665","farm":4,"title":"968f7829e4263b16897efc41d6f29443","ispublic":1,"isfriend":0,"isfamily":0},{"id":"32658667872","owner":"91952228@N00","secret":"11bd11625a","server":"2323","farm":3,"title":"Rainbow Grocery Organic Egg Chart","ispublic":1,"isfriend":0,"isfamily":0},{"id":"32658675702","owner":"42949429@N02","secret":"ac6d218211","server":"3782","farm":4,"title":"Studio Leen! #art #illustration #sketchbook #Sktchy #Moleskine #portraiture #brushpen #artmodel #instamood #art_daily #artagram #penandink #drawing","ispublic":1,"isfriend":0,"isfamily":0},{"id":"32688722281","owner":"81712540@N07","secret":"f8019f9634","server":"3681","farm":4,"title":"\u8a66\u93e1-SIGMA 50mm F1.4 DG HSM ART","ispublic":1,"isfriend":0,"isfamily":0},{"id":"32688724771","owner":"145701894@N08","secret":"92153dfbfa","server":"3859","farm":4,"title":"visitor","ispublic":1,"isfriend":0,"isfamily":0},{"id":"32688725201","owner":"12425940@N06","secret":"1ce3851439","server":"3807","farm":4,"title":"Peace be upon you and Salam Jumaat #sunrise #morningsun #sun #morningjams #sky #thisisshahalam","ispublic":1,"isfriend":0,"isfamily":0},{"id":"32688725281","owner":"36157454@N00","secret":"02f423e7e5","server":"2278","farm":3,"title":"Pinball Wizard. @diygreg and I went to the newly opened Boxcar Arcade last night to have some fun while supporting the awesome work of @gso_murals.","ispublic":1,"isfriend":0,"isfamily":0},{"id":"32688726691","owner":"43304169@N04","secret":"c8cd8cfc5b","server":"2917","farm":3,"title":"\u4e38\u6cbc\u30b9\u30ad\u30fc\u5b66\u6821\u676f\u8cde\u54c1","ispublic":1,"isfriend":0,"isfamily":0},{"id":"32688727411","owner":"131569112@N06","secret":"6fae2449d0","server":"2217","farm":3,"title":"DSC_3583","ispublic":1,"isfriend":0,"isfamily":0},{"id":"32688733881","owner":"136868630@N06","secret":"635f138045","server":"3929","farm":4,"title":"Famous last words.","ispublic":1,"isfriend":0,"isfamily":0},{"id":"32688734521","owner":"136518578@N03","secret":"f1705875fd","server":"640","farm":1,"title":"VOYANCE EXPRESS sur Flashs par SMS OU MAIL.1 R\u00e9ponse rapide par M\u00e9dium Pro","ispublic":1,"isfriend":0,"isfamily":0},{"id":"32688736851","owner":"147107102@N02","secret":"9ec6029d78","server":"3778","farm":4,"title":"\u5317\u9580","ispublic":1,"isfriend":0,"isfamily":0},{"id":"32688737081","owner":"122462637@N08","secret":"907353cb8d","server":"2056","farm":3,"title":"@C_MichelleJKT48 udah diarsip","ispublic":1,"isfriend":0,"isfamily":0},{"id":"32688742111","owner":"131354942@N05","secret":"8d1675e2b6","server":"2371","farm":3,"title":"They're so cute! #weddingdress #weddingphotography #weddingsonpoint #weddingphotographer #abovebrand","ispublic":1,"isfriend":0,"isfamily":0},{"id":"32688745831","owner":"24887943@N02","secret":"22cf5089d8","server":"2005","farm":3,"title":"","ispublic":1,"isfriend":0,"isfamily":0},{"id":"32688750431","owner":"60367433@N00","secret":"5b7900e07c","server":"2459","farm":3,"title":"What I've learned about being 50","ispublic":1,"isfriend":0,"isfamily":0},{"id":"32688754551","owner":"126091722@N02","secret":"56447d9654","server":"2131","farm":3,"title":"DSC09238.jpg","ispublic":1,"isfriend":0,"isfamily":0},{"id":"32688763801","owner":"142917107@N06","secret":"f5a5b82632","server":"748","farm":1,"title":"Sans titre","ispublic":1,"isfriend":0,"isfamily":0},{"id":"32688764791","owner":"20927506@N07","secret":"e9e1884838","server":"2524","farm":3,"title":"Finished","ispublic":1,"isfriend":0,"isfamily":0},{"id":"32688765941","owner":"32225389@N02","secret":"1df87c06d1","server":"3856","farm":4,"title":"the futility of building a wall","ispublic":1,"isfriend":0,"isfamily":0},{"id":"32771250556","owner":"141201804@N07","secret":"0e557f08a3","server":"566","farm":1,"title":"IMG_9793.jpg","ispublic":1,"isfriend":0,"isfamily":0},{"id":"32771251746","owner":"144724802@N06","secret":"46c8a5b907","server":"2703","farm":3,"title":"After many \ud83d\udc4f\ud83d\ude00\ud83d\udc4dsuccessful and triumphant world \ud83c\udf0e tours in  to promote the 888 Lucky Beer \ud83c\udf7b of Washington DC, many people who are craft beers \ud83c\udf7b lovers \u2764\ufe0f around the world said: \"888 is a beautiful beer","ispublic":1,"isfriend":0,"isfamily":0},{"id":"32771260696","owner":"142174125@N05","secret":"60a671d352","server":"2280","farm":3,"title":"How Long Does Weed Stay In Your Urine?...","ispublic":1,"isfriend":0,"isfamily":0},{"id":"32771263016","owner":"139692952@N02","secret":"af2e4c20e9","server":"307","farm":1,"title":"","ispublic":1,"isfriend":0,"isfamily":0},{"id":"32771266476","owner":"145088103@N07","secret":"dd79f76aef","server":"3884","farm":4,"title":"4","ispublic":1,"isfriend":0,"isfamily":0},{"id":"32771278176","owner":"147969174@N06","secret":"b681a2be8b","server":"2066","farm":3,"title":"Una visita que no se dara con relativa frecuencia pero que deja muchos recuerdos, y muchas experiencias. Belleza la de nuestra hermana Rep\u00fablica de Guatemala, Paseo Cayala","ispublic":1,"isfriend":0,"isfamily":0},{"id":"32771279256","owner":"119338797@N06","secret":"95a70c678e","server":"2079","farm":3,"title":"","ispublic":1,"isfriend":0,"isfamily":0},{"id":"32771281676","owner":"15582388@N00","secret":"ee273290ab","server":"3879","farm":4,"title":"IMG_8866","ispublic":1,"isfriend":0,"isfamily":0},{"id":"32771291886","owner":"94688113@N07","secret":"4bf9979e27","server":"2918","farm":3,"title":"Sunrise Centra corniche OnePlus Smartphone Photography","ispublic":1,"isfriend":0,"isfamily":0},{"id":"32771292316","owner":"77879152@N02","secret":"18a92dd581","server":"3730","farm":4,"title":"Scan 274","ispublic":1,"isfriend":0,"isfamily":0},{"id":"32771294376","owner":"109715776@N05","secret":"002dce1799","server":"2824","farm":3,"title":"What's for dinner","ispublic":1,"isfriend":0,"isfamily":0},{"id":"32771295286","owner":"45566694@N00","secret":"b2745e43f5","server":"460","farm":1,"title":"P1090920","ispublic":1,"isfriend":0,"isfamily":0},{"id":"32771296406","owner":"149849589@N08","secret":"5a2b8ed856","server":"2900","farm":3,"title":"More NECA 30th Anniversary Predator Figure Info","ispublic":1,"isfriend":0,"isfamily":0},{"id":"32771299066","owner":"146687094@N07","secret":"c50a5647e9","server":"535","farm":1,"title":"Sunbathe together","ispublic":1,"isfriend":0,"isfamily":0},{"id":"32771301926","owner":"136293392@N02","secret":"9bee4247e9","server":"2107","farm":3,"title":"WordCloud:\u6fb3\u6d32\u6253\u5de5","ispublic":1,"isfriend":0,"isfamily":0},{"id":"32771303686","owner":"58495111@N06","secret":"ff68b9e9b7","server":"3690","farm":4,"title":"Opposite View","ispublic":1,"isfriend":0,"isfamily":0},{"id":"32771313906","owner":"143294446@N08","secret":"1fd6157818","server":"2654","farm":3,"title":"","ispublic":1,"isfriend":0,"isfamily":0},{"id":"32771314516","owner":"37480818@N03","secret":"d5ed1c9548","server":"2733","farm":3,"title":"I stood here for hours and watched the lava form a new coastline. It was amazing. Hawaii, USA [OC][4000x6000]","ispublic":1,"isfriend":0,"isfamily":0},{"id":"32771314586","owner":"10077757@N00","secret":"39d41aeb3e","server":"624","farm":1,"title":"212","ispublic":1,"isfriend":0,"isfamily":0},{"id":"32771317176","owner":"27847040@N07","secret":"109c4968e2","server":"3792","farm":4,"title":"105_6078","ispublic":1,"isfriend":0,"isfamily":0},{"id":"32811993665","owner":"132691324@N04","secret":"f605b2fce7","server":"2550","farm":3,"title":"","ispublic":1,"isfriend":0,"isfamily":0},{"id":"32811994035","owner":"43400147@N05","secret":"3c90366c46","server":"2519","farm":3,"title":"untitled-0899","ispublic":1,"isfriend":0,"isfamily":0},{"id":"32811994075","owner":"29855972@N00","secret":"1b2dcc9b8f","server":"3926","farm":4,"title":"Thank you for the coffee @russellgrimaldi","ispublic":1,"isfriend":0,"isfamily":0},{"id":"32811998335","owner":"151153548@N06","secret":"614546374d","server":"509","farm":1,"title":"10 images","ispublic":1,"isfriend":0,"isfamily":0},{"id":"32811999175","owner":"151082547@N06","secret":"a6f399a1e1","server":"3920","farm":4,"title":"Kryn posing...","ispublic":1,"isfriend":0,"isfamily":0},{"id":"32812004645","owner":"78839608@N00","secret":"033a086835","server":"3718","farm":4,"title":"","ispublic":1,"isfriend":0,"isfamily":0},{"id":"32812008435","owner":"68271007@N02","secret":"1991f8b01e","server":"2371","farm":3,"title":"Dushyant's life in a frame.","ispublic":1,"isfriend":0,"isfamily":0}]},"stat":"ok"}