{"photos":{"page":1,"pages":10,"perpage":100,"total":1000,"photo":[{"id":"32185014004","owner":"137729389@N08","secret":"4c14496cd2","server":"3897","farm":4,"title":"Assalamualakum ukthi , @dhee_whie mau sharing produk terbaru jafra. Akhirnya yang di tunggu dari hadir di indonesia. hasil survey di dunia 77 % wanita yang menggunakan royal jelly pore MINIMAZER SERUM VIT A merasa pori-pori nya semakin tersamar. Good News","ispublic":1,"isfriend":0,"isfamily":0,"url_s":"https:\/\/farm4.staticflickr.com\/3897\/32185014004_4c14496cd2_m.jpg","height_s":"240","width_s":"240"},{"id":"32185016874","owner":"148194160@N04","secret":"847640b019","server":"2369","farm":3,"title":"London sights","ispublic":1,"isfriend":0,"isfamily":0,"url_s":"https:\/\/farm3.staticflickr.com\/2369\/32185016874_847640b019_m.jpg","height_s":"180","width_s":"240"},{"id":"32185020814","owner":"150854905@N05","secret":"29fc8822f7","server":"2823","farm":3,"title":"","ispublic":1,"isfriend":0,"isfamily":0,"url_s":"https:\/\/farm3.staticflickr.com\/2823\/32185020814_29fc8822f7_m.jpg","height_s":"180","width_s":"240"},{"id":"32185032994","owner":"97102756@N07","secret":"855d1bd377","server":"2033","farm":3,"title":"N-2017-02-21-1850_f","ispublic":1,"isfriend":0,"isfamily":0,"url_s":"https:\/\/farm3.staticflickr.com\/2033\/32185032994_855d1bd377_m.jpg","height_s":"240","width_s":"240"},{"id":"32185033234","owner":"25295796@N03","secret":"79599d7fd4","server":"520","farm":1,"title":"2006 Lexus IS - 10.700 \u20ac - E Kuqe Durr\u00ebs, Shqip\u00ebri","ispublic":1,"isfriend":0,"isfamily":0,"url_s":"https:\/\/farm1.staticflickr.com\/520\/32185033234_79599d7fd4_m.jpg","height_s":"240","width_s":"240"},{"id":"32185034634","owner":"144149043@N06","secret":"8a795d5247","server":"612","farm":1,"title":"1982-02_Peru-089","ispublic":1,"isfriend":0,"isfamily":0,"url_s":"https:\/\/farm1.staticflickr.com\/612\/32185034634_8a795d5247_m.jpg","height_s":"153","width_s":"240"},{"id":"32185036644","owner":"11071604@N06","secret":"362c841438","server":"746","farm":1,"title":"DSC04119","ispublic":1,"isfriend":0,"isfamily":0,"url_s":"https:\/\/farm1.staticflickr.com\/746\/32185036644_362c841438_m.jpg","height_s":"180","width_s":"240"},{"id":"32185036984","owner":"34127069@N02","secret":"df0b9cc613","server":"3786","farm":4,"title":"BS1\u30b9\u30da\u30b7\u30e3\u30eb\u300c\u30c0\u30dc\u30b9\u4f1a\u8b702017\u3000\u3069\u3046\u751f\u304d\u308b\uff1f\u4eba\u751f100\u5e74\u6642\u4ee3\u300d\uff3b\u4e8c\uff3d\uff3b\u5b57\uff3d\uff3b\u518d\uff3d","ispublic":1,"isfriend":0,"isfamily":0,"url_s":"https:\/\/farm4.staticflickr.com\/3786\/32185036984_df0b9cc613_m.jpg","height_s":"135","width_s":"240"},{"id":"32185037894","owner":"115914876@N05","secret":"1ebf8a4a6f","server":"3893","farm":4,"title":"IMG_5126.jpg","ispublic":1,"isfriend":0,"isfamily":0,"url_s":"https:\/\/farm4.staticflickr.com\/3893\/32185037894_1ebf8a4a6f_m.jpg","height_s":"180","width_s":"240"},{"id":"32185038244","owner":"69148736@N06","secret":"2822b5f30d","server":"3721","farm":4,"title":"image","ispublic":1,"isfriend":0,"isfamily":0,"url_s":"https:\/\/farm4.staticflickr.com\/3721\/32185038244_2822b5f30d_m.jpg","height_s":"240","width_s":"194"},{"id":"32185038394","owner":"24420847@N06","secret":"cc6573826e","server":"3706","farm":4,"title":"IMG_6755","ispublic":1,"isfriend":0,"isfamily":0,"url_s":"https:\/\/farm4.staticflickr.com\/3706\/32185038394_cc6573826e_m.jpg","height_s":"160","width_s":"240"},{"id":"32215331883","owner":"132147751@N02","secret":"0acbbd8054","server":"3954","farm":4,"title":"Interview: Budi Tanrim \u2013 Budicon","ispublic":1,"isfriend":0,"isfamily":0,"url_s":"https:\/\/farm4.staticflickr.com\/3954\/32215331883_0acbbd8054_m.jpg","height_s":"180","width_s":"240"},{"id":"32215339303","owner":"147490444@N07","secret":"335b2aaee2","server":"551","farm":1,"title":"\u00c4r det inte snyggt i #tv\u00e4ttstugan? Det l\u00f6ser vi direkt med lite #marmor :)","ispublic":1,"isfriend":0,"isfamily":0,"url_s":"https:\/\/farm1.staticflickr.com\/551\/32215339303_335b2aaee2_m.jpg","height_s":"240","width_s":"240"},{"id":"32215340303","owner":"134769165@N04","secret":"42a09dfebf","server":"3835","farm":4,"title":"20170221-mak-01_ew0s6_1200x0","ispublic":1,"isfriend":0,"isfamily":0,"url_s":"https:\/\/farm4.staticflickr.com\/3835\/32215340303_42a09dfebf_m.jpg","height_s":"126","width_s":"240"},{"id":"32215340523","owner":"9231772@N06","secret":"9410abc121","server":"3812","farm":4,"title":"2017-02-21 Singapore","ispublic":1,"isfriend":0,"isfamily":0,"url_s":"https:\/\/farm4.staticflickr.com\/3812\/32215340523_9410abc121_m.jpg","height_s":"240","width_s":"198"},{"id":"32215343673","owner":"147139119@N04","secret":"04c9e637a1","server":"675","farm":1,"title":"2017-02-21_03-18-51","ispublic":1,"isfriend":0,"isfamily":0,"url_s":"https:\/\/farm1.staticflickr.com\/675\/32215343673_04c9e637a1_m.jpg","height_s":"240","width_s":"180"},{"id":"32215344323","owner":"132004421@N04","secret":"3a42567826","server":"464","farm":1,"title":"Photo","ispublic":1,"isfriend":0,"isfamily":0,"url_s":"https:\/\/farm1.staticflickr.com\/464\/32215344323_3a42567826_m.jpg","height_s":"134","width_s":"240"},{"id":"32215344573","owner":"147937193@N04","secret":"c697bc1726","server":"255","farm":1,"title":"PSX_20170218_192401","ispublic":1,"isfriend":0,"isfamily":0,"url_s":"https:\/\/farm1.staticflickr.com\/255\/32215344573_c697bc1726_m.jpg","height_s":"180","width_s":"240"},{"id":"32215347233","owner":"132791403@N08","secret":"ab3956bda4","server":"2157","farm":3,"title":"IP Camera E-mail Alert-md snap(2017-02-21 18:50:34)","ispublic":1,"isfriend":0,"isfamily":0,"url_s":"https:\/\/farm3.staticflickr.com\/2157\/32215347233_ab3956bda4_m.jpg","height_s":"180","width_s":"240"},{"id":"32215348293","owner":"147235904@N08","secret":"e643effbb7","server":"2284","farm":3,"title":"D\u1ef1 \u0111o\u00e1n k\u00e8o Derby County VS Burton Albion 2h45 ng\u00e0y 22\/2","ispublic":1,"isfriend":0,"isfamily":0,"url_s":"https:\/\/farm3.staticflickr.com\/2284\/32215348293_e643effbb7_m.jpg","height_s":"148","width_s":"240"},{"id":"32215348573","owner":"146165780@N07","secret":"e8df120ff7","server":"2755","farm":3,"title":"IPCamera alarm:GS_Railcam detected alarm at 2017-2-21 20:50:26","ispublic":1,"isfriend":0,"isfamily":0,"url_s":"https:\/\/farm3.staticflickr.com\/2755\/32215348573_e8df120ff7_m.jpg","height_s":"135","width_s":"240"},{"id":"32215351273","owner":"148283031@N07","secret":"769050877a","server":"2325","farm":3,"title":"Photo","ispublic":1,"isfriend":0,"isfamily":0,"url_s":"https:\/\/farm3.staticflickr.com\/2325\/32215351273_769050877a_m.jpg","height_s":"49","width_s":"240"},{"id":"32215352563","owner":"151334324@N04","secret":"9904c7854b","server":"3797","farm":4,"title":"","ispublic":1,"isfriend":0,"isfamily":0,"url_s":"https:\/\/farm4.staticflickr.com\/3797\/32215352563_9904c7854b_m.jpg","height_s":"240","width_s":"180"},{"id":"32215352863","owner":"147985316@N03","secret":"cce11c2fb9","server":"2247","farm":3,"title":"Sticky BBQ Chicken! https:\/\/t.co\/NT0BurAy4l #istanbul #food #lezzet #mutfak #nefis #kebap #Tarif #yemektarifleri #foodporn #recipe #cookin\u2026","ispublic":1,"isfriend":0,"isfamily":0,"url_s":"https:\/\/farm3.staticflickr.com\/2247\/32215352863_cce11c2fb9_m.jpg","height_s":"240","width_s":"209"},{"id":"32215353133","owner":"142453247@N03","secret":"f6a0425bfd","server":"2344","farm":3,"title":"Basketball Court Repair in Thursford #Repairing #Sports #Courts #Thursford https:\/\/t.co\/RyAoBS23iG","ispublic":1,"isfriend":0,"isfamily":0,"url_s":"https:\/\/farm3.staticflickr.com\/2344\/32215353133_f6a0425bfd_m.jpg","height_s":"148","width_s":"240"},{"id":"32215354663","owner":"93126814@N00","secret":"ca0faa3b71","server":"2198","farm":3,"title":"IMG_9549.JPG","ispublic":1,"isfriend":0,"isfamily":0,"url_s":"https:\/\/farm3.staticflickr.com\/2198\/32215354663_ca0faa3b71_m.jpg","height_s":"135","width_s":"240"},{"id":"32215354873","owner":"49503057285@N01","secret":"7a0116ed41","server":"3740","farm":4,"title":"Park G\u00fcell-6.jpg","ispublic":1,"isfriend":0,"isfamily":0,"url_s":"https:\/\/farm4.staticflickr.com\/3740\/32215354873_7a0116ed41_m.jpg","height_s":"240","width_s":"160"},{"id":"32648216050","owner":"140324316@N08","secret":"ea31c2878b","server":"2735","farm":3,"title":"Super Nutrition \u2013 Simply One PreNatal Power Vitamins \u2013 90 Tablets For Sale","ispublic":1,"isfriend":0,"isfamily":0,"url_s":"https:\/\/farm3.staticflickr.com\/2735\/32648216050_ea31c2878b_m.jpg","height_s":"240","width_s":"130"},{"id":"32648216750","owner":"142680034@N08","secret":"fb9a355613","server":"335","farm":1,"title":"","ispublic":1,"isfriend":0,"isfamily":0,"url_s":"https:\/\/farm1.staticflickr.com\/335\/32648216750_fb9a355613_m.jpg","height_s":"240","width_s":"164"},{"id":"32648218080","owner":"48201628@N05","secret":"189179a491","server":"3785","farm":4,"title":"Photo","ispublic":1,"isfriend":0,"isfamily":0,"url_s":"https:\/\/farm4.staticflickr.com\/3785\/32648218080_189179a491_m.jpg","height_s":"178","width_s":"240"},{"id":"32648218110","owner":"148004691@N02","secret":"0503405f8d","server":"2789","farm":3,"title":"3Worldphoto Old school","ispublic":1,"isfriend":0,"isfamily":0,"url_s":"https:\/\/farm3.staticflickr.com\/2789\/32648218110_0503405f8d_m.jpg","height_s":"151","width_s":"240"},{"id":"32648222160","owner":"38402380@N07","secret":"5191f1a123","server":"2800","farm":3,"title":"GZ2B9980","ispublic":1,"isfriend":0,"isfamily":0,"url_s":"https:\/\/farm3.staticflickr.com\/2800\/32648222160_5191f1a123_m.jpg","height_s":"160","width_s":"240"},{"id":"32648222550","owner":"137638223@N03","secret":"a588ce1fbe","server":"294","farm":1,"title":"Bloomsky Enschede (February 21, 2017 at 10:46AM)","ispublic":1,"isfriend":0,"isfamily":0,"url_s":"https:\/\/farm1.staticflickr.com\/294\/32648222550_a588ce1fbe_m.jpg","height_s":"240","width_s":"240"},{"id":"32648225590","owner":"67000021@N04","secret":"9b996c0ecd","server":"3816","farm":4,"title":"69106280698311","ispublic":1,"isfriend":0,"isfamily":0,"url_s":"https:\/\/farm4.staticflickr.com\/3816\/32648225590_9b996c0ecd_m.jpg","height_s":"180","width_s":"240"},{"id":"32648232770","owner":"10623131@N03","secret":"c4839c434e","server":"2515","farm":3,"title":"LetSocify Review | LetSocify Bonus And Demo","ispublic":1,"isfriend":0,"isfamily":0,"url_s":"https:\/\/farm3.staticflickr.com\/2515\/32648232770_c4839c434e_m.jpg","height_s":"148","width_s":"240"},{"id":"32648235500","owner":"35385240@N06","secret":"fb68ee4d08","server":"2228","farm":3,"title":"@CanaLapinnn__: RT @__Alicecream__: (\u5927\u597d\u304d\u306a\u30a2\u30cb\u30bd\u30f3\u30b2\u30fc\u30bd\u30f3\u6771\u65b9\u3092\u305f\u3063\u3077\u308a\u8abf\u6559\u3057\u3066\u6d41\u3057\u3066\u3084\u308b\u2026\/\/\/) https:\/\/t.co\/RqBsXFLvDs","ispublic":1,"isfriend":0,"isfamily":0},{"id":"32648235880","owner":"50253476@N03","secret":"96abe3d1cf","server":"2470","farm":3,"title":"IMG_3542_DxO","ispublic":1,"isfriend":0,"isfamily":0,"url_s":"https:\/\/farm3.staticflickr.com\/2470\/32648235880_96abe3d1cf_m.jpg","height_s":"160","width_s":"240"},{"id":"32648237590","owner":"138823275@N03","secret":"db49c84ffd","server":"2008","farm":3,"title":"2017-02-21_09-50-31","ispublic":1,"isfriend":0,"isfamily":0,"url_s":"https:\/\/farm3.staticflickr.com\/2008\/32648237590_db49c84ffd_m.jpg","height_s":"240","width_s":"135"},{"id":"32648239040","owner":"27847040@N07","secret":"8326efa210","server":"715","farm":1,"title":"2017-02-21_19-31-37","ispublic":1,"isfriend":0,"isfamily":0,"url_s":"https:\/\/farm1.staticflickr.com\/715\/32648239040_8326efa210_m.jpg","height_s":"160","width_s":"240"},{"id":"32648242010","owner":"50312784@N07","secret":"5a1a12aa06","server":"351","farm":1,"title":"Almost Mardi Gras","ispublic":1,"isfriend":0,"isfamily":0,"url_s":"https:\/\/farm1.staticflickr.com\/351\/32648242010_5a1a12aa06_m.jpg","height_s":"180","width_s":"240"},{"id":"32648243630","owner":"134320290@N06","secret":"b930103b24","server":"3764","farm":4,"title":"Winterakoniet \/ Eranthis hyemalis","ispublic":1,"isfriend":0,"isfamily":0,"url_s":"https:\/\/farm4.staticflickr.com\/3764\/32648243630_b930103b24_m.jpg","height_s":"160","width_s":"240"},{"id":"32648243820","owner":"18911612@N08","secret":"73408f2b91","server":"3845","farm":4,"title":"Sarlat-la-Can\u00e9da","ispublic":1,"isfriend":0,"isfamily":0,"url_s":"https:\/\/farm4.staticflickr.com\/3845\/32648243820_73408f2b91_m.jpg","height_s":"240","width_s":"180"},{"id":"32648244120","owner":"147892278@N03","secret":"3751bb6eed","server":"503","farm":1,"title":"","ispublic":1,"isfriend":0,"isfamily":0,"url_s":"https:\/\/farm1.staticflickr.com\/503\/32648244120_3751bb6eed_m.jpg","height_s":"240","width_s":"180"},{"id":"32648246920","owner":"84117455@N08","secret":"9ed6a9fc97","server":"502","farm":1,"title":"","ispublic":1,"isfriend":0,"isfamily":0,"url_s":"https:\/\/farm1.staticflickr.com\/502\/32648246920_9ed6a9fc97_m.jpg","height_s":"240","width_s":"180"},{"id":"32648247600","owner":"49118647@N08","secret":"bd30a9a086","server":"2042","farm":3,"title":"CamGrab [LW2-20170221095030.jpg]","ispublic":1,"isfriend":0,"isfamily":0,"url_s":"https:\/\/farm3.staticflickr.com\/2042\/32648247600_bd30a9a086_m.jpg","height_s":"135","width_s":"240"},{"id":"32648247910","owner":"138410766@N03","secret":"5e19aa8e46","server":"2283","farm":3,"title":"IMG_20170218_163200","ispublic":1,"isfriend":0,"isfamily":0,"url_s":"https:\/\/farm3.staticflickr.com\/2283\/32648247910_5e19aa8e46_m.jpg","height_s":"240","width_s":"180"},{"id":"32874624792","owner":"150493628@N06","secret":"1454585277","server":"521","farm":1,"title":"Minecraft PE - L'Armatura di Diamante INCANTATA","ispublic":1,"isfriend":0,"isfamily":0,"url_s":"https:\/\/farm1.staticflickr.com\/521\/32874624792_1454585277_m.jpg","height_s":"135","width_s":"240"},{"id":"32874631482","owner":"147695073@N07","secret":"018cf37204","server":"2560","farm":3,"title":"","ispublic":1,"isfriend":0,"isfamily":0,"url_s":"https:\/\/farm3.staticflickr.com\/2560\/32874631482_018cf37204_m.jpg","height_s":"160","width_s":"240"},{"id":"32874633822","owner":"135989196@N02","secret":"966080edf0","server":"266","farm":1,"title":"","ispublic":1,"isfriend":0,"isfamily":0,"url_s":"https:\/\/farm1.staticflickr.com\/266\/32874633822_966080edf0_m.jpg","height_s":"240","width_s":"240"},{"id":"32874636262","owner":"147416241@N07","secret":"8344d7d91d","server":"2831","farm":3,"title":"Kahramanlar\u0131n Yolu hd izle","ispublic":1,"isfriend":0,"isfamily":0,"url_s":"https:\/\/farm3.staticflickr.com\/2831\/32874636262_8344d7d91d_m.jpg","height_s":"240","width_s":"161"},{"id":"32874636272","owner":"91587755@N02","secret":"88f84ed1fa","server":"2464","farm":3,"title":"Fundamentals: mirepoix! In fact we call it \"soffritto\". It is cut a bit larger than usual because I'm making a vegetables rag\u00fa","ispublic":1,"isfriend":0,"isfamily":0,"url_s":"https:\/\/farm3.staticflickr.com\/2464\/32874636272_88f84ed1fa_m.jpg","height_s":"240","width_s":"240"},{"id":"32874640202","owner":"55790179@N04","secret":"faa8676290","server":"2154","farm":3,"title":"DSC09321","ispublic":1,"isfriend":0,"isfamily":0,"url_s":"https:\/\/farm3.staticflickr.com\/2154\/32874640202_faa8676290_m.jpg","height_s":"160","width_s":"240"},{"id":"32874640342","owner":"11107786@N08","secret":"ff256c8c66","server":"2231","farm":3,"title":"R0000144-2","ispublic":1,"isfriend":0,"isfamily":0,"url_s":"https:\/\/farm3.staticflickr.com\/2231\/32874640342_ff256c8c66_m.jpg","height_s":"159","width_s":"240"},{"id":"32874646152","owner":"143380123@N08","secret":"4a5f4b6223","server":"2750","farm":3,"title":"Amor ao mar!","ispublic":1,"isfriend":0,"isfamily":0,"url_s":"https:\/\/farm3.staticflickr.com\/2750\/32874646152_4a5f4b6223_m.jpg","height_s":"240","width_s":"160"},{"id":"32874647172","owner":"146632930@N02","secret":"a0e2f6fcdc","server":"2937","farm":3,"title":"#Etna 21.02.2017 serra la nave","ispublic":1,"isfriend":0,"isfamily":0,"url_s":"https:\/\/farm3.staticflickr.com\/2937\/32874647172_a0e2f6fcdc_m.jpg","height_s":"159","width_s":"240"},{"id":"32903854851","owner":"24917258@N05","secret":"ccfc901e16","server":"2319","farm":3,"title":"IMG_7713","ispublic":1,"isfriend":0,"isfamily":0,"url_s":"https:\/\/farm3.staticflickr.com\/2319\/32903854851_ccfc901e16_m.jpg","height_s":"180","width_s":"240"},{"id":"32903861021","owner":"16369999@N02","secret":"44d618cce1","server":"278","farm":1,"title":"Can't wait to do some more riding with my besty and sis @pinkstumpy . . . #singularperegrine #lumicycle #steelisreal #brooksengland #brookssaddle #rapha_rcc #marmite #outsideisfree #cyclingphotos #cyclingshots #girlswhoride #womenscycling #rapha #whenindo","ispublic":1,"isfriend":0,"isfamily":0,"url_s":"https:\/\/farm1.staticflickr.com\/278\/32903861021_44d618cce1_m.jpg","height_s":"126","width_s":"240"},{"id":"32903863571","owner":"37830526@N04","secret":"707e301315","server":"2917","farm":3,"title":"Sunrise","ispublic":1,"isfriend":0,"isfamily":0,"url_s":"https:\/\/farm3.staticflickr.com\/2917\/32903863571_707e301315_m.jpg","height_s":"159","width_s":"240"},{"id":"32903867531","owner":"133029852@N08","secret":"402ffd47b7","server":"3746","farm":4,"title":"2017-02-21_05-49-58","ispublic":1,"isfriend":0,"isfamily":0,"url_s":"https:\/\/farm4.staticflickr.com\/3746\/32903867531_402ffd47b7_m.jpg","height_s":"180","width_s":"240"},{"id":"32903872311","owner":"135859549@N08","secret":"e46aaefb90","server":"661","farm":1,"title":"12\/365","ispublic":1,"isfriend":0,"isfamily":0,"url_s":"https:\/\/farm1.staticflickr.com\/661\/32903872311_e46aaefb90_m.jpg","height_s":"240","width_s":"240"},{"id":"32903875001","owner":"96811126@N07","secret":"21cc3a5430","server":"2765","farm":3,"title":"When Donald wanted to surprise his wife on their anniversary, we were pleased to be able to help -\u2026 https:\/\/t.co\/GmpmD736D2","ispublic":1,"isfriend":0,"isfamily":0,"url_s":"https:\/\/farm3.staticflickr.com\/2765\/32903875001_21cc3a5430_m.jpg","height_s":"120","width_s":"240"},{"id":"32903878981","owner":"62991404@N06","secret":"48e86360d3","server":"2214","farm":3,"title":"Record by Always E-mail, 2017-02-21 04:50:37","ispublic":1,"isfriend":0,"isfamily":0,"url_s":"https:\/\/farm3.staticflickr.com\/2214\/32903878981_48e86360d3_m.jpg","height_s":"180","width_s":"240"},{"id":"32903879491","owner":"136942070@N07","secret":"5923c269b6","server":"322","farm":1,"title":"\u00ab\u0645\u0627\u0632\u06cc\u0686\u0627\u0644\u00bb\u060c \u062f\u0647\u06a9\u062f\u0647\u200c\u0627\u06cc \u06a9\u0647 \u0634\u0628\u06cc\u0647 \u06cc\u06a9 \u0631\u0648\u06cc\u0627\u0633\u062a","ispublic":1,"isfriend":0,"isfamily":0,"url_s":"https:\/\/farm1.staticflickr.com\/322\/32903879491_5923c269b6_m.jpg","height_s":"157","width_s":"240"},{"id":"32903879971","owner":"144485850@N03","secret":"b32c408dde","server":"2892","farm":3,"title":"Mathias woeritz","ispublic":1,"isfriend":0,"isfamily":0,"url_s":"https:\/\/farm3.staticflickr.com\/2892\/32903879971_b32c408dde_m.jpg","height_s":"180","width_s":"240"},{"id":"32903883541","owner":"147357620@N05","secret":"fc2140cb4c","server":"2387","farm":3,"title":"Anti Aging Asian Anti Aging Secrets Discover All The Secrets In Asian Natural Skincare Lifestyle And","ispublic":1,"isfriend":0,"isfamily":0,"url_s":"https:\/\/farm3.staticflickr.com\/2387\/32903883541_fc2140cb4c_m.jpg","height_s":"180","width_s":"240"},{"id":"32903884461","owner":"120489215@N06","secret":"c26193aa9a","server":"404","farm":1,"title":"","ispublic":1,"isfriend":0,"isfamily":0,"url_s":"https:\/\/farm1.staticflickr.com\/404\/32903884461_c26193aa9a_m.jpg","height_s":"180","width_s":"240"},{"id":"32903885451","owner":"44882464@N00","secret":"cd1f374e01","server":"441","farm":1,"title":"20170216-IMG_8809.jpg","ispublic":1,"isfriend":0,"isfamily":0,"url_s":"https:\/\/farm1.staticflickr.com\/441\/32903885451_cd1f374e01_m.jpg","height_s":"117","width_s":"240"},{"id":"32988617696","owner":"152126055@N04","secret":"72ecfbbc62","server":"601","farm":1,"title":"\u041f\u0441\u0438\u0445\u043e\u043b\u043e\u0433\u0438 \u043f\u0440\u0435\u0434\u043b\u043e\u0436\u0438\u043b\u0438 \u044d\u0444\u0444\u0435\u043a\u0442\u0438\u0432\u043d\u044b\u0439 \u0441\u043f\u043e\u0441\u043e\u0431, \u043a\u043e\u0442\u043e\u0440\u044b\u0439 \u043f\u043e\u043c\u043e\u0436\u0435\u0442 \u0431\u0440\u043e\u0441\u0438\u0442\u044c \u043a\u0443\u0440\u0438\u0442\u044c","ispublic":1,"isfriend":0,"isfamily":0,"url_s":"https:\/\/farm1.staticflickr.com\/601\/32988617696_72ecfbbc62_m.jpg","height_s":"160","width_s":"240"},{"id":"32988620736","owner":"147238063@N05","secret":"aa72866c0b","server":"2489","farm":3,"title":"\u4fe1\u7fa9101 2\u51fa","ispublic":1,"isfriend":0,"isfamily":0,"url_s":"https:\/\/farm3.staticflickr.com\/2489\/32988620736_aa72866c0b_m.jpg","height_s":"240","width_s":"240"},{"id":"32988624056","owner":"15384688@N00","secret":"791c0259da","server":"2521","farm":3,"title":"","ispublic":1,"isfriend":0,"isfamily":0,"url_s":"https:\/\/farm3.staticflickr.com\/2521\/32988624056_791c0259da_m.jpg","height_s":"180","width_s":"240"},{"id":"32988626106","owner":"145673096@N03","secret":"9fa13f8c1d","server":"3877","farm":4,"title":"Ombres (1 sur 1).jpg","ispublic":1,"isfriend":0,"isfamily":0,"url_s":"https:\/\/farm4.staticflickr.com\/3877\/32988626106_9fa13f8c1d_m.jpg","height_s":"160","width_s":"240"},{"id":"32988628656","owner":"147886302@N02","secret":"12665bf7b2","server":"2058","farm":3,"title":"\u0e42\u0e1b\u0e23\u0e42\u0e21\u0e0a\u0e31\u0e48\u0e19 CPS Chaps Fill some sunset for Sunday! \u0e04\u0e35\u0e1e\u0e25\u0e38\u0e04\u0e01\u0e31\u0e19\u0e2b\u0e19\u0e48\u0e2d\u0e22 !!  (\u0e27\u0e31\u0e19\u0e19\u0e35\u0e49 -\u0e44\u0e21\u0e48\u0e21\u0e35\u0e23\u0e30\u0e22\u0e30\u0e40\u0e27\u0e25\u0e32\u0e01\u0e33\u0e2b\u0e19\u0e14)","ispublic":1,"isfriend":0,"isfamily":0,"url_s":"https:\/\/farm3.staticflickr.com\/2058\/32988628656_12665bf7b2_m.jpg","height_s":"240","width_s":"160"},{"id":"32988628726","owner":"90535065@N03","secret":"b54c11b17d","server":"2620","farm":3,"title":"test123","ispublic":1,"isfriend":0,"isfamily":0,"url_s":"https:\/\/farm3.staticflickr.com\/2620\/32988628726_b54c11b17d_m.jpg","height_s":"160","width_s":"240"},{"id":"32988628916","owner":"146945850@N07","secret":"d653db8851","server":"2522","farm":3,"title":"Production - id: 1508 - data_id: 1833 - norad_id: 40042 - ground_station: 6","ispublic":1,"isfriend":0,"isfamily":0,"url_s":"https:\/\/farm3.staticflickr.com\/2522\/32988628916_d653db8851_m.jpg","height_s":"36","width_s":"240"},{"id":"32988630326","owner":"96668798@N08","secret":"b511d574f3","server":"676","farm":1,"title":"DSC_9262-Modifier-Modifier.jpg","ispublic":1,"isfriend":0,"isfamily":0,"url_s":"https:\/\/farm1.staticflickr.com\/676\/32988630326_b511d574f3_m.jpg","height_s":"159","width_s":"240"},{"id":"32988631506","owner":"85754870@N00","secret":"e1cdeede3e","server":"2049","farm":3,"title":"DSC_0014.jpg","ispublic":1,"isfriend":0,"isfamily":0,"url_s":"https:\/\/farm3.staticflickr.com\/2049\/32988631506_e1cdeede3e_m.jpg","height_s":"160","width_s":"240"},{"id":"32988633796","owner":"115330976@N05","secret":"8aff8e1d37","server":"384","farm":1,"title":"Kashan","ispublic":1,"isfriend":0,"isfamily":0,"url_s":"https:\/\/farm1.staticflickr.com\/384\/32988633796_8aff8e1d37_m.jpg","height_s":"160","width_s":"240"},{"id":"32988637016","owner":"125705008@N08","secret":"bfc9b935b2","server":"2631","farm":3,"title":"dekhbhaiShare_Image.png","ispublic":1,"isfriend":0,"isfamily":0,"url_s":"https:\/\/farm3.staticflickr.com\/2631\/32988637016_bfc9b935b2_m.jpg","height_s":"240","width_s":"240"},{"id":"32988638466","owner":"38270747@N06","secret":"4bcbebc62d","server":"2583","farm":3,"title":"Jimmy's 82nd birthday lunch (8 of 102).jpg","ispublic":1,"isfriend":0,"isfamily":0,"url_s":"https:\/\/farm3.staticflickr.com\/2583\/32988638466_4bcbebc62d_m.jpg","height_s":"240","width_s":"160"},{"id":"32988638666","owner":"105703892@N04","secret":"071f2db886","server":"2111","farm":3,"title":"","ispublic":1,"isfriend":0,"isfamily":0,"url_s":"https:\/\/farm3.staticflickr.com\/2111\/32988638666_071f2db886_m.jpg","height_s":"160","width_s":"240"},{"id":"32988639436","owner":"147557172@N06","secret":"87258aa035","server":"2637","farm":3,"title":"DSC_6296","ispublic":1,"isfriend":0,"isfamily":0,"url_s":"https:\/\/farm3.staticflickr.com\/2637\/32988639436_87258aa035_m.jpg","height_s":"159","width_s":"240"},{"id":"32988639586","owner":"149728927@N06","secret":"9bb636b4f0","server":"2155","farm":3,"title":"How to Avoid a Thief in Your Small Business","ispublic":1,"isfriend":0,"isfamily":0,"url_s":"https:\/\/farm3.staticflickr.com\/2155\/32988639586_9bb636b4f0_m.jpg","height_s":"240","width_s":"240"},{"id":"32988640296","owner":"152111676@N05","secret":"c9d8f2b261","server":"3765","farm":4,"title":"img3323.jpg","ispublic":1,"isfriend":0,"isfamily":0,"url_s":"https:\/\/farm4.staticflickr.com\/3765\/32988640296_c9d8f2b261_m.jpg","height_s":"152","width_s":"240"},{"id":"32988640546","owner":"137361314@N02","secret":"5c17fa6739","server":"782","farm":1,"title":"1991: Isle of Skye from Kyle","ispublic":1,"isfriend":0,"isfamily":0,"url_s":"https:\/\/farm1.staticflickr.com\/782\/32988640546_5c17fa6739_m.jpg","height_s":"143","width_s":"240"},{"id":"32988640766","owner":"128382023@N06","secret":"6f00942d83","server":"3878","farm":4,"title":"DSCF2978.jpg","ispublic":1,"isfriend":0,"isfamily":0,"url_s":"https:\/\/farm4.staticflickr.com\/3878\/32988640766_6f00942d83_m.jpg","height_s":"240","width_s":"180"},{"id":"32988641296","owner":"11707927@N05","secret":"7ff98cdcce","server":"2178","farm":3,"title":"Trofeo di Lavis (TN)","ispublic":1,"isfriend":0,"isfamily":0,"url_s":"https:\/\/farm3.staticflickr.com\/2178\/32988641296_7ff98cdcce_m.jpg","height_s":"180","width_s":"240"},{"id":"32988641556","owner":"141580668@N06","secret":"6596047275","server":"365","farm":1,"title":"Saree Multi Cotton Miss India Saree Collection Sarees on Shimply.com","ispublic":1,"isfriend":0,"isfamily":0,"url_s":"https:\/\/farm1.staticflickr.com\/365\/32988641556_6596047275_m.jpg","height_s":"240","width_s":"160"},{"id":"33030283215","owner":"145378022@N04","secret":"924fe63df3","server":"2112","farm":3,"title":"LK Model Zone","ispublic":1,"isfriend":0,"isfamily":0,"url_s":"https:\/\/farm3.staticflickr.com\/2112\/33030283215_924fe63df3_m.jpg","height_s":"160","width_s":"240"},{"id":"33030288515","owner":"147934013@N04","secret":"e39752bae7","server":"301","farm":1,"title":"Payday Loans Irving http:\/\/bit.ly\/2kU2MVX http:\/\/bit.ly\/2lGTUaM","ispublic":1,"isfriend":0,"isfamily":0,"url_s":"https:\/\/farm1.staticflickr.com\/301\/33030288515_e39752bae7_m.jpg","height_s":"115","width_s":"240"},{"id":"33030289325","owner":"147209162@N05","secret":"f3eeb07881","server":"2907","farm":3,"title":"Fatine dei fiori in lana fiaba e cardata di CreazioniMonica","ispublic":1,"isfriend":0,"isfamily":0,"url_s":"https:\/\/farm3.staticflickr.com\/2907\/33030289325_f3eeb07881_m.jpg","height_s":"240","width_s":"180"},{"id":"33030289345","owner":"66430340@N07","secret":"f417682701","server":"2573","farm":3,"title":"Barclays Center Arena - 20170221_0445","ispublic":1,"isfriend":0,"isfamily":0,"url_s":"https:\/\/farm3.staticflickr.com\/2573\/33030289345_f417682701_m.jpg","height_s":"135","width_s":"240"},{"id":"33030290125","owner":"135101909@N05","secret":"3e4d73bd79","server":"2252","farm":3,"title":"delicias Vs. renedo (217)","ispublic":1,"isfriend":0,"isfamily":0,"url_s":"https:\/\/farm3.staticflickr.com\/2252\/33030290125_3e4d73bd79_m.jpg","height_s":"159","width_s":"240"},{"id":"33030290435","owner":"95571836@N04","secret":"884470f653","server":"2805","farm":3,"title":"N-2017-02-21-1850_f","ispublic":1,"isfriend":0,"isfamily":0,"url_s":"https:\/\/farm3.staticflickr.com\/2805\/33030290435_884470f653_m.jpg","height_s":"240","width_s":"240"},{"id":"33030291225","owner":"65796885@N00","secret":"49d8524449","server":"2024","farm":3,"title":"Boys on Golden Cap in Dorset","ispublic":1,"isfriend":0,"isfamily":0,"url_s":"https:\/\/farm3.staticflickr.com\/2024\/33030291225_49d8524449_m.jpg","height_s":"240","width_s":"240"},{"id":"33030291335","owner":"144545963@N07","secret":"00d7bea4f8","server":"2558","farm":3,"title":"Pinned to Tweeted on Pinterest","ispublic":1,"isfriend":0,"isfamily":0,"url_s":"https:\/\/farm3.staticflickr.com\/2558\/33030291335_00d7bea4f8_m.jpg","height_s":"126","width_s":"240"},{"id":"33030291435","owner":"152301215@N07","secret":"04723af3a6","server":"3894","farm":4,"title":"DSC_0222 5","ispublic":1,"isfriend":0,"isfamily":0,"url_s":"https:\/\/farm4.staticflickr.com\/3894\/33030291435_04723af3a6_m.jpg","height_s":"160","width_s":"240"},{"id":"33030292165","owner":"54989697@N02","secret":"5862256a5e","server":"2703","farm":3,"title":"La ma\u00f1ana con niebla y baja temperatura","ispublic":1,"isfriend":0,"isfamily":0,"url_s":"https:\/\/farm3.staticflickr.com\/2703\/33030292165_5862256a5e_m.jpg","height_s":"180","width_s":"240"},{"id":"33030294505","owner":"148031969@N02","secret":"bc5d2d64a3","server":"2846","farm":3,"title":"2017-02-21_10-50-52","ispublic":1,"isfriend":0,"isfamily":0,"url_s":"https:\/\/farm3.staticflickr.com\/2846\/33030294505_bc5d2d64a3_m.jpg","height_s":"160","width_s":"240"},{"id":"33030295015","owner":"130668577@N04","secret":"b89c1e8dbb","server":"3851","farm":4,"title":"Port Waikato","ispublic":1,"isfriend":0,"isfamily":0,"url_s":"https:\/\/farm4.staticflickr.com\/3851\/33030295015_b89c1e8dbb_m.jpg","height_s":"160","width_s":"240"},{"id":"33030296145","owner":"147978183@N07","secret":"84ac540524","server":"2440","farm":3,"title":"graphics_(6)","ispublic":1,"isfriend":0,"isfamily":0,"url_s":"https:\/\/farm3.staticflickr.com\/2440\/33030296145_84ac540524_m.jpg","height_s":"240","width_s":"209"}]},"stat":"ok"}